<?xml version="1.0" encoding="utf-8"?>
<!-- Generator: Adobe Illustrator 18.1.1, SVG Export Plug-In . SVG Version: 6.00 Build 0)  -->
<!DOCTYPE svg PUBLIC "-//W3C//DTD SVG 1.1//EN" "http://www.w3.org/Graphics/SVG/1.1/DTD/svg11.dtd">
<svg version="1.1" id="Layer_1" xmlns="http://www.w3.org/2000/svg" xmlns:xlink="http://www.w3.org/1999/xlink" x="0px" y="0px"
	 viewBox="0 0 232.9 77.1" enable-background="new 0 0 232.9 77.1" xml:space="preserve">
<g>
	<g>
		<path fill="#FFFFFF" d="M5.6,70.6V6.5h64.9v11.2h-50v16.9h50v11.7h-50v24.4H5.6z"/>
		<path fill="#FFFFFF" d="M79,70.6V6.5h54.9c9.6,0,14.4,4.1,14.4,12.4v14.3c0,8.3-4.8,12.4-14.4,12.4H93.7v25H79z M127.2,17.4H93.7
			v17.3h33.5c2.3,0,3.9-0.3,4.8-0.8c1.2-0.8,1.9-2.2,1.9-4.4v-6.9c0-2.2-0.6-3.7-1.9-4.4C131.2,17.7,129.6,17.4,127.2,17.4z"/>
	</g>
	<g>
		<polygon fill="none" points="167.8,6.5 189.2,29.7 210.5,6.5 		"/>
		<polygon fill="none" points="209.8,70.6 189.2,48.1 168.5,70.6 		"/>
		<polygon fill="#FFFFFF" points="192.9,25.5 201.3,34.6 227.3,6.5 210.5,6.5 		"/>
		<polygon fill="#FFFFFF" points="189.2,29.7 167.8,6.5 151,6.5 180.7,38.9 151.6,70.6 168.5,70.6 189.2,48.1 197.6,38.9 		"/>
		<polygon fill="#FFFFFF" points="193.4,52.6 209.8,70.6 226.7,70.6 201.8,43.5 		"/>
	</g>
</g>
</svg>
